[gd_resource type="Resource" load_steps=3 format=2]

[ext_resource path="res://Assets/cure.png" type="Texture" id=1]
[ext_resource path="res://Code/ItemStats.cs" type="Script" id=2]

[resource]
script = ExtResource( 2 )
ItemImage = ExtResource( 1 )
