[gd_resource type="Resource" load_steps=3 format=2]

[ext_resource path="res://Assets/Fantasy Game Skills Icon 1 - Magic - Fire Ball level 1.jpg" type="Texture" id=1]
[ext_resource path="res://Code/ItemStats.cs" type="Script" id=2]

[resource]
script = ExtResource( 2 )
ItemImage = ExtResource( 1 )
